\relax 
\providecommand\hyper@newdestlabel[2]{}
\providecommand\HyperFirstAtBeginDocument{\AtBeginDocument}
\HyperFirstAtBeginDocument{\ifx\hyper@anchor\@undefined
\global\let\oldcontentsline\contentsline
\gdef\contentsline#1#2#3#4{\oldcontentsline{#1}{#2}{#3}}
\global\let\oldnewlabel\newlabel
\gdef\newlabel#1#2{\newlabelxx{#1}#2}
\gdef\newlabelxx#1#2#3#4#5#6{\oldnewlabel{#1}{{#2}{#3}}}
\AtEndDocument{\ifx\hyper@anchor\@undefined
\let\contentsline\oldcontentsline
\let\newlabel\oldnewlabel
\fi}
\fi}
\global\let\hyper@last\relax 
\gdef\HyperFirstAtBeginDocument#1{#1}
\providecommand\HyField@AuxAddToFields[1]{}
\providecommand\HyField@AuxAddToCoFields[2]{}
\@writefile{toc}{\contentsline {chapter}{\numberline {1}\leavevmode {\color  {Chapter } The \textsf  {CREAM} package }}{4}{chapter.1}}
\@writefile{lof}{\addvspace {10\p@ }}
\@writefile{lot}{\addvspace {10\p@ }}
\newlabel{The CREAM package}{{1}{4}{\textcolor {Chapter }{ The \textsf {CREAM} package }}{chapter.1}{}}
\@writefile{toc}{\contentsline {section}{\numberline {1.1}\leavevmode {\color  {Chapter } Introduction }}{4}{section.1.1}}
\newlabel{Introduction}{{1.1}{4}{\textcolor {Chapter }{ Introduction }}{section.1.1}{}}
\@writefile{toc}{\contentsline {section}{\numberline {1.2}\leavevmode {\color  {Chapter } Overview }}{4}{section.1.2}}
\newlabel{Overview}{{1.2}{4}{\textcolor {Chapter }{ Overview }}{section.1.2}{}}
\@writefile{toc}{\contentsline {chapter}{\numberline {2}\leavevmode {\color  {Chapter }Installing \textsf  {CREAM}}}{5}{chapter.2}}
\@writefile{lof}{\addvspace {10\p@ }}
\@writefile{lot}{\addvspace {10\p@ }}
\newlabel{Installing CREAM}{{2}{5}{\textcolor {Chapter }{Installing \textsf {CREAM}}}{chapter.2}{}}
\@writefile{toc}{\contentsline {section}{\numberline {2.1}\leavevmode {\color  {Chapter }Package dependencies}}{5}{section.2.1}}
\newlabel{Package dependencies}{{2.1}{5}{\textcolor {Chapter }{Package dependencies}}{section.2.1}{}}
\@writefile{toc}{\contentsline {section}{\numberline {2.2}\leavevmode {\color  {Chapter }Compiling the kernel module}}{5}{section.2.2}}
\newlabel{Compiling the kernel module}{{2.2}{5}{\textcolor {Chapter }{Compiling the kernel module}}{section.2.2}{}}
\@writefile{toc}{\contentsline {section}{\numberline {2.3}\leavevmode {\color  {Chapter }Compiling mace4}}{5}{section.2.3}}
\newlabel{Compiling mace4}{{2.3}{5}{\textcolor {Chapter }{Compiling mace4}}{section.2.3}{}}
\@writefile{toc}{\contentsline {section}{\numberline {2.4}\leavevmode {\color  {Chapter }Building the documentation}}{6}{section.2.4}}
\newlabel{Building the documentation}{{2.4}{6}{\textcolor {Chapter }{Building the documentation}}{section.2.4}{}}
\@writefile{toc}{\contentsline {section}{\numberline {2.5}\leavevmode {\color  {Chapter }Testing your installation}}{6}{section.2.5}}
\newlabel{Testing your installation}{{2.5}{6}{\textcolor {Chapter }{Testing your installation}}{section.2.5}{}}
\citation{WUA}
\citation{WPS}
\@writefile{toc}{\contentsline {chapter}{\numberline {3}\leavevmode {\color  {Chapter }Mathematical Background}}{7}{chapter.3}}
\@writefile{lof}{\addvspace {10\p@ }}
\@writefile{lot}{\addvspace {10\p@ }}
\newlabel{background}{{3}{7}{\textcolor {Chapter }{Mathematical Background}}{chapter.3}{}}
\@writefile{toc}{\contentsline {section}{\numberline {3.1}\leavevmode {\color  {Chapter }Algebra of Type ($2^m$,$1^n$) }}{7}{section.3.1}}
\newlabel{Algebras of type 2}{{3.1}{7}{\textcolor {Chapter }{Algebra of Type ($2^m$,$1^n$) }}{section.3.1}{}}
\@writefile{brf}{\backcite{WUA}{{7}{3.1}{section.3.1}}}
\@writefile{toc}{\contentsline {section}{\numberline {3.2}\leavevmode {\color  {Chapter }Partition }}{7}{section.3.2}}
\newlabel{Partition}{{3.2}{7}{\textcolor {Chapter }{Partition }}{section.3.2}{}}
\@writefile{brf}{\backcite{WPS}{{7}{3.2}{section.3.2}}}
\citation{WCR}
\@writefile{toc}{\contentsline {section}{\numberline {3.3}\leavevmode {\color  {Chapter }Congruences }}{8}{section.3.3}}
\newlabel{Congruence}{{3.3}{8}{\textcolor {Chapter }{Congruences }}{section.3.3}{}}
\@writefile{brf}{\backcite{WCR}{{8}{3.3}{section.3.3}}}
\@writefile{toc}{\contentsline {section}{\numberline {3.4}\leavevmode {\color  {Chapter }Homomorphism, Endomorphism, Isomorphism and Automorphism}}{8}{section.3.4}}
\newlabel{Homo iso and auto morphisms}{{3.4}{8}{\textcolor {Chapter }{Homomorphism, Endomorphism, Isomorphism and Automorphism}}{section.3.4}{}}
\@writefile{toc}{\contentsline {chapter}{\numberline {4}\leavevmode {\color  {Chapter }Functionality}}{9}{chapter.4}}
\@writefile{lof}{\addvspace {10\p@ }}
\@writefile{lot}{\addvspace {10\p@ }}
\newlabel{functions}{{4}{9}{\textcolor {Chapter }{Functionality}}{chapter.4}{}}
\@writefile{toc}{\contentsline {section}{\numberline {4.1}\leavevmode {\color  {Chapter }Algebras}}{9}{section.4.1}}
\newlabel{algebras}{{4.1}{9}{\textcolor {Chapter }{Algebras}}{section.4.1}{}}
\@writefile{toc}{\contentsline {subsection}{\numberline {4.1.1}\leavevmode {\color  {Chapter }CreamSizeAlgebra}}{9}{subsection.4.1.1}}
\newlabel{CreamSizeAlgebra}{{4.1.1}{9}{\textcolor {Chapter }{CreamSizeAlgebra}}{subsection.4.1.1}{}}
\@writefile{toc}{\contentsline {subsection}{\numberline {4.1.2}\leavevmode {\color  {Chapter }CreamIsAlgebra}}{9}{subsection.4.1.2}}
\newlabel{CreamIsAlgebra}{{4.1.2}{9}{\textcolor {Chapter }{CreamIsAlgebra}}{subsection.4.1.2}{}}
\@writefile{toc}{\contentsline {section}{\numberline {4.2}\leavevmode {\color  {Chapter }Congruences}}{10}{section.4.2}}
\newlabel{congruences}{{4.2}{10}{\textcolor {Chapter }{Congruences}}{section.4.2}{}}
\@writefile{toc}{\contentsline {subsection}{\numberline {4.2.1}\leavevmode {\color  {Chapter }CreamNumberOfBlocks}}{10}{subsection.4.2.1}}
\newlabel{CreamNumberOfBlocks}{{4.2.1}{10}{\textcolor {Chapter }{CreamNumberOfBlocks}}{subsection.4.2.1}{}}
\@writefile{toc}{\contentsline {subsection}{\numberline {4.2.2}\leavevmode {\color  {Chapter }CreamContainedPartition}}{10}{subsection.4.2.2}}
\newlabel{CreamContainedPartition}{{4.2.2}{10}{\textcolor {Chapter }{CreamContainedPartition}}{subsection.4.2.2}{}}
\citation{Fr08}
\@writefile{toc}{\contentsline {subsection}{\numberline {4.2.3}\leavevmode {\color  {Chapter }CreamPrincipalCongruence}}{11}{subsection.4.2.3}}
\newlabel{CreamPrincipalCongruence}{{4.2.3}{11}{\textcolor {Chapter }{CreamPrincipalCongruence}}{subsection.4.2.3}{}}
\@writefile{brf}{\backcite{Fr08}{{11}{4.2.3}{subsection.4.2.3}}}
\@writefile{toc}{\contentsline {subsection}{\numberline {4.2.4}\leavevmode {\color  {Chapter }CreamAllPrincipalCongruences}}{11}{subsection.4.2.4}}
\newlabel{CreamAllPrincipalCongruences}{{4.2.4}{11}{\textcolor {Chapter }{CreamAllPrincipalCongruences}}{subsection.4.2.4}{}}
\@writefile{toc}{\contentsline {subsection}{\numberline {4.2.5}\leavevmode {\color  {Chapter }CreamIsAlgebraMonolithic}}{11}{subsection.4.2.5}}
\newlabel{CreamIsAlgebraMonolithic}{{4.2.5}{11}{\textcolor {Chapter }{CreamIsAlgebraMonolithic}}{subsection.4.2.5}{}}
\@writefile{toc}{\contentsline {subsection}{\numberline {4.2.6}\leavevmode {\color  {Chapter }CreamAllCongruences}}{12}{subsection.4.2.6}}
\newlabel{CreamAllCongruences}{{4.2.6}{12}{\textcolor {Chapter }{CreamAllCongruences}}{subsection.4.2.6}{}}
\@writefile{toc}{\contentsline {section}{\numberline {4.3}\leavevmode {\color  {Chapter }Isomorphisms, Automorphisms and Endomorphisms}}{13}{section.4.3}}
\newlabel{morphisms}{{4.3}{13}{\textcolor {Chapter }{Isomorphisms, Automorphisms and Endomorphisms}}{section.4.3}{}}
\@writefile{toc}{\contentsline {subsection}{\numberline {4.3.1}\leavevmode {\color  {Chapter }CreamAreIsomorphicAlgebras}}{13}{subsection.4.3.1}}
\newlabel{CreamAreIsomorphicAlgebras}{{4.3.1}{13}{\textcolor {Chapter }{CreamAreIsomorphicAlgebras}}{subsection.4.3.1}{}}
\@writefile{toc}{\contentsline {subsection}{\numberline {4.3.2}\leavevmode {\color  {Chapter }CreamAllSubUniverses}}{13}{subsection.4.3.2}}
\newlabel{CreamAllSubUniverses}{{4.3.2}{13}{\textcolor {Chapter }{CreamAllSubUniverses}}{subsection.4.3.2}{}}
\@writefile{toc}{\contentsline {subsection}{\numberline {4.3.3}\leavevmode {\color  {Chapter }CreamSubUniverse2Algebra}}{14}{subsection.4.3.3}}
\newlabel{CreamSubUniverse2Algebra}{{4.3.3}{14}{\textcolor {Chapter }{CreamSubUniverse2Algebra}}{subsection.4.3.3}{}}
\@writefile{toc}{\contentsline {subsection}{\numberline {4.3.4}\leavevmode {\color  {Chapter }CreamAlgebrasFromAxioms}}{14}{subsection.4.3.4}}
\newlabel{CreamAlgebrasFromAxioms}{{4.3.4}{14}{\textcolor {Chapter }{CreamAlgebrasFromAxioms}}{subsection.4.3.4}{}}
\@writefile{toc}{\contentsline {subsection}{\numberline {4.3.5}\leavevmode {\color  {Chapter }CreamEndomorphisms}}{14}{subsection.4.3.5}}
\newlabel{CreamEndomorphisms}{{4.3.5}{14}{\textcolor {Chapter }{CreamEndomorphisms}}{subsection.4.3.5}{}}
\@writefile{toc}{\contentsline {subsection}{\numberline {4.3.6}\leavevmode {\color  {Chapter }CreamAutomorphisms}}{15}{subsection.4.3.6}}
\newlabel{CreamAutomorphisms}{{4.3.6}{15}{\textcolor {Chapter }{CreamAutomorphisms}}{subsection.4.3.6}{}}
\@writefile{toc}{\contentsline {subsection}{\numberline {4.3.7}\leavevmode {\color  {Chapter }CreamExistsEpimorphism}}{15}{subsection.4.3.7}}
\newlabel{CreamExistsEpimorphism}{{4.3.7}{15}{\textcolor {Chapter }{CreamExistsEpimorphism}}{subsection.4.3.7}{}}
\@writefile{toc}{\contentsline {subsection}{\numberline {4.3.8}\leavevmode {\color  {Chapter }CreamOneEpimorphism}}{16}{subsection.4.3.8}}
\newlabel{CreamOneEpimorphism}{{4.3.8}{16}{\textcolor {Chapter }{CreamOneEpimorphism}}{subsection.4.3.8}{}}
\@writefile{toc}{\contentsline {subsection}{\numberline {4.3.9}\leavevmode {\color  {Chapter }CreamAllEpimorphisms}}{16}{subsection.4.3.9}}
\newlabel{CreamAllEpimorphisms}{{4.3.9}{16}{\textcolor {Chapter }{CreamAllEpimorphisms}}{subsection.4.3.9}{}}
\@writefile{toc}{\contentsline {subsection}{\numberline {4.3.10}\leavevmode {\color  {Chapter }CreamExistsMonomorphism}}{17}{subsection.4.3.10}}
\newlabel{CreamExistsMonomorphism}{{4.3.10}{17}{\textcolor {Chapter }{CreamExistsMonomorphism}}{subsection.4.3.10}{}}
\@writefile{toc}{\contentsline {subsection}{\numberline {4.3.11}\leavevmode {\color  {Chapter }CreamOneMonomorphism}}{17}{subsection.4.3.11}}
\newlabel{CreamOneMonomorphism}{{4.3.11}{17}{\textcolor {Chapter }{CreamOneMonomorphism}}{subsection.4.3.11}{}}
\@writefile{toc}{\contentsline {subsection}{\numberline {4.3.12}\leavevmode {\color  {Chapter }CreamAllMonomorphisms}}{18}{subsection.4.3.12}}
\newlabel{CreamAllMonomorphisms}{{4.3.12}{18}{\textcolor {Chapter }{CreamAllMonomorphisms}}{subsection.4.3.12}{}}
\@writefile{toc}{\contentsline {subsection}{\numberline {4.3.13}\leavevmode {\color  {Chapter }CreamExistsDivisor}}{18}{subsection.4.3.13}}
\newlabel{CreamExistsDivisor}{{4.3.13}{18}{\textcolor {Chapter }{CreamExistsDivisor}}{subsection.4.3.13}{}}
\@writefile{toc}{\contentsline {subsection}{\numberline {4.3.14}\leavevmode {\color  {Chapter }CreamOneDivisorUniverse}}{19}{subsection.4.3.14}}
\newlabel{CreamOneDivisorUniverse}{{4.3.14}{19}{\textcolor {Chapter }{CreamOneDivisorUniverse}}{subsection.4.3.14}{}}
\@writefile{toc}{\contentsline {subsection}{\numberline {4.3.15}\leavevmode {\color  {Chapter }CreamAllDivisorUniverses}}{19}{subsection.4.3.15}}
\newlabel{CreamAllDivisorUniverses}{{4.3.15}{19}{\textcolor {Chapter }{CreamAllDivisorUniverses}}{subsection.4.3.15}{}}
\@writefile{toc}{\contentsline {subsection}{\numberline {4.3.16}\leavevmode {\color  {Chapter }CreamExistsDirectFactorization}}{20}{subsection.4.3.16}}
\newlabel{CreamExistsDirectFactorization}{{4.3.16}{20}{\textcolor {Chapter }{CreamExistsDirectFactorization}}{subsection.4.3.16}{}}
\@writefile{toc}{\contentsline {subsection}{\numberline {4.3.17}\leavevmode {\color  {Chapter }CreamOneDirectFactorization}}{20}{subsection.4.3.17}}
\newlabel{CreamOneDirectFactorization}{{4.3.17}{20}{\textcolor {Chapter }{CreamOneDirectFactorization}}{subsection.4.3.17}{}}
\@writefile{toc}{\contentsline {subsection}{\numberline {4.3.18}\leavevmode {\color  {Chapter }CreamAllDirectFactors}}{20}{subsection.4.3.18}}
\newlabel{CreamAllDirectFactors}{{4.3.18}{20}{\textcolor {Chapter }{CreamAllDirectFactors}}{subsection.4.3.18}{}}
\bibstyle{alpha}
\bibdata{bib.xml}
\bibcite{Fr08}{Fre08}
\bibcite{WCR}{WCR}
\bibcite{WPS}{WPS}
\bibcite{WUA}{WUA}
\@writefile{toc}{\contentsline {chapter}{References}{22}{chapter*.5}}
\@writefile{toc}{\contentsline {chapter}{Index}{23}{section*.6}}
